project/verilog/pixelArray_tb.vcd
$date
	Sat Nov 13 10:40:26 2021
$end
$version
	Icarus Verilog
$end
$timescale
	1ps
$end
$scope module pixelArray_tb $end
$var wire 1 ! anaReset $end
$var wire 8 " pixData [7:0] $end
$var wire 1 # anaRamp $end
$var wire 1 $ anaBias1 $end
$var reg 1 % clk $end
$var reg 1 & convert $end
$var reg 1 ' counter_reset $end
$var reg 8 ( data [7:0] $end
$var reg 1 ) erase $end
$var reg 1 * expose $end
$var reg 8 + gray_counter [7:0] $end
$var reg 3 , next_state [2:0] $end
$var reg 32 - pixelDataOut [31:0] $end
$var reg 8 . q [7:0] $end
$var reg 1 / read_1 $end
$var reg 1 0 read_2 $end
$var reg 1 1 read_3 $end
$var reg 1 2 read_4 $end
$var reg 1 3 reset $end
$var reg 3 4 state [2:0] $end
$var integer 32 5 fo [31:0] $end
$var integer 32 6 y [31:0] $end
$scope module PA $end
$var wire 8 7 DATA [7:0] $end
$var wire 1 ) ERASE $end
$var wire 1 * EXPOSE $end
$var wire 1 # RAMP $end
$var wire 1 / READ_1 $end
$var wire 1 0 READ_2 $end
$var wire 1 1 READ_3 $end
$var wire 1 2 READ_4 $end
$var wire 1 ! RESET $end
$var wire 1 $ VBN1 $end
$scope module PS1 $end
$var wire 8 8 DATA [7:0] $end
$var wire 1 ) ERASE $end
$var wire 1 * EXPOSE $end
$var wire 1 # RAMP $end
$var wire 1 / READ $end
$var wire 1 ! RESET $end
$var wire 1 $ VBN1 $end
$var reg 1 9 cmp $end
$var reg 8 : p_data [7:0] $end
$var real 1 ; adc $end
$var real 1 < lsb $end
$var real 1 = tmp $end
$var real 1 > v_erase $end
$upscope $end
$scope module PS2 $end
$var wire 8 ? DATA [7:0] $end
$var wire 1 ) ERASE $end
$var wire 1 * EXPOSE $end
$var wire 1 # RAMP $end
$var wire 1 0 READ $end
$var wire 1 ! RESET $end
$var wire 1 $ VBN1 $end
$var reg 1 @ cmp $end
$var reg 8 A p_data [7:0] $end
$var real 1 B adc $end
$var real 1 C lsb $end
$var real 1 D tmp $end
$var real 1 E v_erase $end
$upscope $end
$scope module PS3 $end
$var wire 8 F DATA [7:0] $end
$var wire 1 ) ERASE $end
$var wire 1 * EXPOSE $end
$var wire 1 # RAMP $end
$var wire 1 1 READ $end
$var wire 1 ! RESET $end
$var wire 1 $ VBN1 $end
$var reg 1 G cmp $end
$var reg 8 H p_data [7:0] $end
$var real 1 I adc $end
$var real 1 J lsb $end
$var real 1 K tmp $end
$var real 1 L v_erase $end
$upscope $end
$scope module PS4 $end
$var wire 8 M DATA [7:0] $end
$var wire 1 ) ERASE $end
$var wire 1 * EXPOSE $end
$var wire 1 # RAMP $end
$var wire 1 2 READ $end
$var wire 1 ! RESET $end
$var wire 1 $ VBN1 $end
$var reg 1 N cmp $end
$var reg 8 O p_data [7:0] $end
$var real 1 P adc $end
$var real 1 Q lsb $end
$var real 1 R tmp $end
$var real 1 S v_erase $end
$upscope $end
$upscope $end
$upscope $end
$enddefinitions $end
#500000
$dumpvars
r1.2 S
r0 R
r0.004705882352941176 Q
r0 P
bx O
xN
bx M
r1.2 L
r0 K
r0.004705882352941176 J
r0 I
bx H
xG
bx F
r1.2 E
r0 D
r0.004705882352941176 C
r0 B
bx A
x@
bx ?
r1.2 >
r0 =
r0.004705882352941176 <
r0 ;
bx :
x9
bx 8
bx 7
b0 6
b10000000000000000000000000000011 5
b0 4
03
x2
x1
x0
x/
b0 .
b0 -
b0 ,
bx +
x*
x)
b0 (
1'
0&
1%
x$
0#
bx "
1!
$end
#1000000
b0 "
b0 7
b0 8
b0 ?
b0 F
b0 M
0N
b0 O
r1.2 R
0G
b0 H
r1.2 K
0@
b0 A
r1.2 D
09
b0 :
r1.2 =
0*
02
01
00
0/
1)
0$
0%
#1500000
b0 +
0'
1%
#2000000
0%
#2500000
b1 .
1%
#3000000
0%
#3500000
b1 +
b10 .
1%
#4000000
0%
#4500000
b11 +
b11 .
1%
#5000000
0%
#5500000
b10 +
b100 .
1%
#6000000
0%
#6500000
b110 +
b101 .
1%
#7000000
0%
#7500000
b111 +
b110 .
1%
#8000000
0%
#8500000
b101 +
b111 .
1%
#9000000
0%
#9500000
b111 4
b1 ,
b100 +
b1000 .
1%
#10000000
0)
0%
#10500000
b1 4
b1100 +
b0 .
1'
1%
#11000000
1*
0%
#11500000
b0 +
r1.196235294117647 R
r1.196705882352941 K
r1.197176470588235 D
r1.197647058823529 =
0'
1$
1%
#12000000
0$
0%
#12500000
b1 .
r1.195294117647059 =
r1.194352941176471 D
r1.193411764705882 K
r1.192470588235294 R
1$
1%
#13000000
0$
0%
#13500000
b1 +
b10 .
r1.188705882352941 R
r1.190117647058823 K
r1.191529411764706 D
r1.192941176470588 =
1$
1%
#14000000
0$
0%
#14500000
b11 +
b11 .
r1.190588235294117 =
r1.188705882352941 D
r1.186823529411764 K
r1.184941176470588 R
1$
1%
#15000000
0$
0%
#15500000
b10 +
b100 .
r1.181176470588235 R
r1.183529411764705 K
r1.185882352941177 D
r1.188235294117647 =
1$
1%
#16000000
0$
0%
#16500000
b110 +
b101 .
r1.185882352941176 =
r1.183058823529412 D
r1.180235294117647 K
r1.177411764705883 R
1$
1%
#17000000
0$
0%
#17500000
b111 +
b110 .
r1.17364705882353 R
r1.176941176470588 K
r1.180235294117647 D
r1.183529411764705 =
1$
1%
#18000000
0$
0%
#18500000
b101 +
b111 .
r1.181176470588235 =
r1.177411764705883 D
r1.173647058823529 K
r1.169882352941177 R
1$
1%
#19000000
0$
0%
#19500000
b100 +
b1000 .
r1.166117647058824 R
r1.17035294117647 K
r1.174588235294118 D
r1.178823529411764 =
1$
1%
#20000000
0$
0%
#20500000
b1100 +
b1001 .
r1.176470588235293 =
r1.171764705882353 D
r1.167058823529411 K
r1.162352941176471 R
1$
1%
#21000000
0$
0%
#21500000
b1101 +
b1010 .
r1.158588235294118 R
r1.163764705882352 K
r1.168941176470589 D
r1.174117647058823 =
1$
1%
#22000000
0$
0%
#22500000
b1111 +
b1011 .
r1.171764705882352 =
r1.166117647058824 D
r1.160470588235293 K
r1.154823529411765 R
1$
1%
#23000000
0$
0%
#23500000
b1110 +
b1100 .
r1.151058823529412 R
r1.157176470588234 K
r1.163294117647059 D
r1.169411764705881 =
1$
1%
#24000000
0$
0%
#24500000
b1010 +
b1101 .
r1.167058823529411 =
r1.160470588235295 D
r1.153882352941175 K
r1.147294117647059 R
1$
1%
#25000000
0$
0%
#25500000
b1011 +
b1110 .
r1.143529411764707 R
r1.150588235294117 K
r1.15764705882353 D
r1.16470588235294 =
1$
1%
#26000000
0$
0%
#26500000
b1001 +
b1111 .
r1.162352941176469 =
r1.154823529411765 D
r1.147294117647058 K
r1.139764705882354 R
1$
1%
#27000000
0$
0%
#27500000
b1000 +
b10000 .
r1.136000000000001 R
r1.143999999999999 K
r1.152000000000001 D
r1.159999999999999 =
1$
1%
#28000000
0$
0%
#28500000
b11000 +
b10001 .
r1.157647058823528 =
r1.149176470588236 D
r1.14070588235294 K
r1.132235294117648 R
1$
1%
#29000000
0$
0%
#29500000
b11001 +
b10010 .
r1.128470588235295 R
r1.137411764705881 K
r1.146352941176471 D
r1.155294117647057 =
1$
1%
#30000000
0$
0%
#30500000
b11011 +
b10011 .
r1.152941176470587 =
r1.143529411764707 D
r1.134117647058822 K
r1.124705882352942 R
1$
1%
#31000000
0$
0%
#31500000
b11010 +
b10100 .
r1.120941176470589 R
r1.130823529411763 K
r1.140705882352942 D
r1.150588235294116 =
1$
1%
#32000000
0$
0%
#32500000
b11110 +
b10101 .
r1.148235294117645 =
r1.137882352941177 D
r1.127529411764704 K
r1.117176470588236 R
1$
1%
#33000000
0$
0%
#33500000
b11111 +
b10110 .
r1.113411764705883 R
r1.124235294117645 K
r1.135058823529413 D
r1.145882352941175 =
1$
1%
#34000000
0$
0%
#34500000
b11101 +
b10111 .
r1.143529411764704 =
r1.132235294117648 D
r1.120941176470587 K
r1.109647058823531 R
1$
1%
#35000000
0$
0%
#35500000
b11100 +
b11000 .
r1.105882352941178 R
r1.117647058823528 K
r1.129411764705883 D
r1.141176470588233 =
1$
1%
#36000000
0$
0%
#36500000
b10100 +
b11001 .
r1.138823529411763 =
r1.126588235294119 D
r1.114352941176469 K
r1.102117647058825 R
1$
1%
#37000000
0$
0%
#37500000
b10101 +
b11010 .
r1.098352941176472 R
r1.11105882352941 K
r1.123764705882354 D
r1.136470588235292 =
1$
1%
#38000000
0$
0%
#38500000
b10111 +
b11011 .
r1.134117647058821 =
r1.120941176470589 D
r1.107764705882351 K
r1.094588235294119 R
1$
1%
#39000000
0$
0%
#39500000
b10110 +
b11100 .
r1.090823529411766 R
r1.104470588235292 K
r1.118117647058825 D
r1.131764705882351 =
1$
1%
#40000000
0$
0%
#40500000
b10010 +
b11101 .
r1.12941176470588 =
r1.11529411764706 D
r1.101176470588233 K
r1.087058823529413 R
1$
1%
#41000000
0$
0%
#41500000
b10011 +
b11110 .
r1.08329411764706 R
r1.097882352941174 K
r1.112470588235295 D
r1.127058823529409 =
1$
1%
#42000000
0$
0%
#42500000
b10001 +
b11111 .
r1.124705882352939 =
r1.109647058823531 D
r1.094588235294115 K
r1.079529411764707 R
1$
1%
#43000000
0$
0%
#43500000
b10000 +
b100000 .
r1.075764705882355 R
r1.091294117647057 K
r1.106823529411766 D
r1.122352941176468 =
1$
1%
#44000000
0$
0%
#44500000
b110000 +
b100001 .
r1.119999999999997 =
r1.104000000000001 D
r1.087999999999998 K
r1.072000000000002 R
1$
1%
#45000000
0$
0%
#45500000
b110001 +
b100010 .
r1.068235294117649 R
r1.084705882352939 K
r1.101176470588237 D
r1.117647058823527 =
1$
1%
#46000000
0$
0%
#46500000
b110011 +
b100011 .
r1.115294117647056 =
r1.098352941176472 D
r1.08141176470588 K
r1.064470588235296 R
1$
1%
#47000000
0$
0%
#47500000
b110010 +
b100100 .
r1.060705882352943 R
r1.078117647058821 K
r1.095529411764707 D
r1.112941176470585 =
1$
1%
#48000000
0$
0%
#48500000
b110110 +
b100101 .
r1.110588235294115 =
r1.092705882352943 D
r1.074823529411762 K
r1.05694117647059 R
1$
1%
#49000000
0$
0%
#49500000
b110111 +
b100110 .
r1.053176470588237 R
r1.071529411764703 K
r1.089882352941178 D
r1.108235294117644 =
1$
1%
#50000000
0$
0%
#50500000
b110101 +
b100111 .
r1.105882352941173 =
r1.087058823529413 D
r1.068235294117644 K
r1.049411764705884 R
1$
1%
#51000000
0$
0%
#51500000
b110100 +
b101000 .
r1.045647058823531 R
r1.064941176470585 K
r1.084235294117649 D
r1.103529411764703 =
1$
1%
#52000000
0$
0%
#52500000
b111100 +
b101001 .
r1.101176470588232 =
r1.081411764705884 D
r1.061647058823527 K
r1.041882352941178 R
1$
1%
#53000000
0$
0%
#53500000
b111101 +
b101010 .
r1.038117647058826 R
r1.058352941176468 K
r1.078588235294119 D
r1.098823529411761 =
1$
1%
#54000000
0$
0%
#54500000
b111111 +
b101011 .
r1.096470588235291 =
r1.075764705882355 D
r1.055058823529409 K
r1.034352941176473 R
1$
1%
#55000000
0$
0%
#55500000
b111110 +
b101100 .
r1.03058823529412 R
r1.05176470588235 K
r1.07294117647059 D
r1.09411764705882 =
1$
1%
#56000000
0$
0%
#56500000
b111010 +
b101101 .
r1.091764705882349 =
r1.070117647058825 D
r1.048470588235291 K
r1.026823529411767 R
1$
1%
#57000000
0$
0%
#57500000
b111011 +
b101110 .
r1.023058823529414 R
r1.045176470588232 K
r1.067294117647061 D
r1.089411764705879 =
1$
1%
#58000000
0$
0%
#58500000
b111001 +
b101111 .
r1.087058823529408 =
r1.064470588235296 D
r1.041882352941173 K
r1.019294117647061 R
1$
1%
#59000000
0$
0%
#59500000
b111000 +
b110000 .
r1.015529411764708 R
r1.038588235294114 K
r1.061647058823531 D
r1.084705882352937 =
1$
1%
#60000000
0$
0%
#60500000
b101000 +
b110001 .
r1.082352941176467 =
r1.058823529411766 D
r1.035294117647055 K
r1.011764705882355 R
1$
1%
#61000000
0$
0%
#61500000
b101001 +
b110010 .
r1.008000000000002 R
r1.031999999999996 K
r1.056000000000002 D
r1.079999999999996 =
1$
1%
#62000000
0$
0%
#62500000
b101011 +
b110011 .
r1.077647058823525 =
r1.053176470588237 D
r1.028705882352938 K
r1.00423529411765 R
1$
1%
#63000000
0$
0%
#63500000
b101010 +
b110100 .
r1.000470588235297 R
r1.025411764705879 K
r1.050352941176472 D
r1.075294117647055 =
1$
1%
#64000000
0$
0%
#64500000
b101110 +
b110101 .
r1.072941176470584 =
r1.047529411764708 D
r1.02211764705882 K
r0.9967058823529438 R
1$
1%
#65000000
0$
0%
#65500000
b101111 +
b110110 .
r0.9929411764705909 R
r1.018823529411761 K
r1.044705882352943 D
r1.070588235294113 =
1$
1%
#66000000
0$
0%
#66500000
b101101 +
b110111 .
r1.068235294117643 =
r1.041882352941178 D
r1.015529411764702 K
r0.989176470588238 R
1$
1%
#67000000
0$
0%
#67500000
b101100 +
b111000 .
r0.9854117647058851 R
r1.012235294117643 K
r1.039058823529414 D
r1.065882352941172 =
1$
1%
#68000000
0$
0%
#68500000
b100100 +
b111001 .
r1.063529411764701 =
r1.036235294117649 D
r1.008941176470584 K
r0.9816470588235322 R
1$
1%
#69000000
0$
0%
#69500000
b100101 +
b111010 .
r0.9778823529411793 R
r1.005647058823525 K
r1.033411764705884 D
r1.061176470588231 =
1$
1%
#70000000
0$
0%
#70500000
b100111 +
b111011 .
r1.05882352941176 =
r1.03058823529412 D
r1.002352941176466 K
r0.9741176470588264 R
1$
1%
#71000000
0$
0%
#71500000
b100110 +
b111100 .
r0.9703529411764735 R
r0.9990588235294077 K
r1.027764705882355 D
r1.056470588235289 =
1$
1%
#72000000
0$
0%
#72500000
b100010 +
b111101 .
r1.054117647058818 =
r1.02494117647059 D
r0.9957647058823489 K
r0.9665882352941206 R
1$
1%
#73000000
0$
0%
#73500000
b100011 +
b111110 .
r0.9628235294117677 R
r0.9924705882352901 K
r1.022117647058826 D
r1.051764705882348 =
1$
1%
#74000000
0$
0%
#74500000
b100001 +
b111111 .
r1.049411764705877 =
r1.019294117647061 D
r0.9891764705882313 K
r0.9590588235294149 R
1$
1%
#75000000
0$
0%
#75500000
b100000 +
b1000000 .
r0.955294117647062 R
r0.9858823529411725 K
r1.016470588235296 D
r1.047058823529406 =
1$
1%
#76000000
0$
0%
#76500000
b1100000 +
b1000001 .
r1.044705882352936 =
r1.013647058823532 D
r0.9825882352941138 K
r0.9515294117647091 R
1$
1%
#77000000
0$
0%
#77500000
b1100001 +
b1000010 .
r0.9477647058823562 R
r0.979294117647055 K
r1.010823529411767 D
r1.042352941176465 =
1$
1%
#78000000
0$
0%
#78500000
b1100011 +
b1000011 .
r1.039999999999994 =
r1.008000000000002 D
r0.9759999999999962 K
r0.9440000000000033 R
1$
1%
#79000000
0$
0%
#79500000
b1100010 +
b1000100 .
r0.9402352941176504 R
r0.9727058823529374 K
r1.005176470588238 D
r1.037647058823524 =
1$
1%
#80000000
0$
0%
#80500000
b1100110 +
b1000101 .
r1.035294117647053 =
r1.002352941176473 D
r0.9694117647058786 K
r0.9364705882352975 R
1$
1%
#81000000
0$
0%
#81500000
b1100111 +
b1000110 .
r0.9327058823529446 R
r0.9661176470588199 K
r0.9995294117647084 D
r1.032941176470582 =
1$
1%
#82000000
0$
0%
#82500000
b1100101 +
b1000111 .
r1.030588235294112 =
r0.9967058823529438 D
r0.9628235294117611 K
r0.9289411764705917 R
1$
1%
#83000000
0$
0%
#83500000
b1100100 +
b1001000 .
r0.9251764705882388 R
r0.9595294117647023 K
r0.9938823529411791 D
r1.028235294117641 =
1$
1%
#84000000
0$
0%
#84500000
b1101100 +
b1001001 .
r1.02588235294117 =
r0.9910588235294144 D
r0.9562352941176435 K
r0.9214117647058859 R
1$
1%
#85000000
0$
0%
#85500000
b1101101 +
b1001010 .
r0.917647058823533 R
r0.9529411764705847 K
r0.9882352941176498 D
r1.0235294117647 =
1$
1%
#86000000
0$
0%
#86500000
b1101111 +
b1001011 .
r1.021176470588229 =
r0.9854117647058851 D
r0.949647058823526 K
r0.9138823529411801 R
1$
1%
#87000000
0$
0%
#87500000
b1101110 +
b1001100 .
r0.9101176470588273 R
r0.9463529411764672 K
r0.9825882352941204 D
r1.018823529411758 =
1$
1%
#88000000
0$
0%
#88500000
b1101010 +
b1001101 .
r1.016470588235288 =
r0.9797647058823558 D
r0.9430588235294084 K
r0.9063529411764744 R
1$
1%
#89000000
0$
0%
#89500000
b1101011 +
b1001110 .
r0.9025882352941215 R
r0.9397647058823496 K
r0.9769411764705911 D
r1.014117647058817 =
1$
1%
#90000000
0$
0%
#90500000
b1101001 +
b1001111 .
r1.011764705882346 =
r0.9741176470588264 D
r0.9364705882352908 K
r0.8988235294117686 R
1$
1%
#91000000
0$
0%
#91500000
b1101000 +
b1010000 .
r0.8950588235294157 R
r0.9331764705882321 K
r0.9712941176470617 D
r1.009411764705876 =
1$
1%
#92000000
0$
0%
#92500000
b1111000 +
b1010001 .
r1.007058823529405 =
r0.9684705882352971 D
r0.9298823529411733 K
r0.8912941176470628 R
1$
1%
#93000000
0$
0%
#93500000
b1111001 +
b1010010 .
r0.8875294117647099 R
r0.9265882352941145 K
r0.9656470588235324 D
r1.004705882352934 =
1$
1%
#94000000
0$
0%
#94500000
b1111011 +
b1010011 .
r1.002352941176464 =
r0.9628235294117677 D
r0.9232941176470557 K
r0.883764705882357 R
1$
1%
#95000000
0$
0%
#95500000
b1111010 +
b1010100 .
r0.8800000000000041 R
r0.9199999999999969 K
r0.9600000000000031 D
r0.9999999999999932 =
1$
1%
#96000000
0$
0%
#96500000
b1111110 +
b1010101 .
r0.9976470588235227 =
r0.9571764705882384 D
r0.9167058823529382 K
r0.8762352941176512 R
1$
1%
#97000000
0$
0%
#97500000
b1111111 +
b1010110 .
r0.8724705882352983 R
r0.9134117647058794 K
r0.9543529411764737 D
r0.9952941176470521 =
1$
1%
#98000000
0$
0%
#98500000
b1111101 +
b1010111 .
r0.9929411764705816 =
r0.9515294117647091 D
r0.9101176470588206 K
r0.8687058823529454 R
1$
1%
#99000000
0$
0%
#99500000
b1111100 +
b1011000 .
r0.8649411764705925 R
r0.9068235294117618 K
r0.9487058823529444 D
r0.990588235294111 =
1$
1%
#100000000
0$
0%
#100500000
b1110100 +
b1011001 .
r0.9882352941176404 =
r0.9458823529411797 D
r0.903529411764703 K
r0.8611764705882397 R
1$
1%
#101000000
0$
0%
#101500000
b1110101 +
b1011010 .
r0.8574117647058868 R
r0.9002352941176442 K
r0.9430588235294151 D
r0.9858823529411699 =
1$
1%
#102000000
0$
0%
#102500000
b1110111 +
b1011011 .
r0.9835294117646993 =
r0.9402352941176504 D
r0.8969411764705855 K
r0.8536470588235339 R
1$
1%
#103000000
0$
0%
#103500000
b1110110 +
b1011100 .
r0.849882352941181 R
r0.8936470588235267 K
r0.9374117647058857 D
r0.9811764705882288 =
1$
1%
#104000000
0$
0%
#104500000
b1110010 +
b1011101 .
r0.9788235294117582 =
r0.9345882352941211 D
r0.8903529411764679 K
r0.8461176470588281 R
1$
1%
#105000000
0$
0%
#105500000
b1110011 +
b1011110 .
r0.8423529411764752 R
r0.8870588235294091 K
r0.9317647058823564 D
r0.9764705882352877 =
1$
1%
#106000000
0$
0%
#106500000
b1110001 +
b1011111 .
r0.9741176470588171 =
r0.9289411764705917 D
r0.8837647058823503 K
r0.8385882352941223 R
1$
1%
#107000000
0$
0%
#107500000
b1110000 +
b1100000 .
r0.8348235294117694 R
r0.8804705882352916 K
r0.926117647058827 D
r0.9717647058823465 =
1$
1%
#108000000
0$
0%
#108500000
b1010000 +
b1100001 .
r0.969411764705876 =
r0.9232941176470624 D
r0.8771764705882328 K
r0.8310588235294165 R
1$
1%
#109000000
0$
0%
#109500000
b1010001 +
b1100010 .
r0.8272941176470636 R
r0.873882352941174 K
r0.9204705882352977 D
r0.9670588235294054 =
1$
1%
#110000000
0$
0%
#110500000
b1010011 +
b1100011 .
r0.9647058823529349 =
r0.917647058823533 D
r0.8705882352941152 K
r0.8235294117647107 R
1$
1%
#111000000
0$
0%
#111500000
b1010010 +
b1100100 .
r0.8197647058823578 R
r0.8672941176470564 K
r0.9148235294117684 D
r0.9623529411764643 =
1$
1%
#112000000
0$
0%
#112500000
b1010110 +
b1100101 .
r0.9599999999999937 =
r0.9120000000000037 D
r0.8639999999999977 K
r0.8160000000000049 R
1$
1%
#113000000
0$
0%
#113500000
b1010111 +
b1100110 .
r0.8122352941176521 R
r0.8607058823529389 K
r0.909176470588239 D
r0.9576470588235232 =
1$
1%
#114000000
0$
0%
#114500000
b1010101 +
b1100111 .
r0.9552941176470526 =
r0.9063529411764744 D
r0.8574117647058801 K
r0.8084705882352992 R
1$
1%
#115000000
0$
0%
#115500000
b1010100 +
b1101000 .
r0.8047058823529463 R
r0.8541176470588213 K
r0.9035294117647097 D
r0.9529411764705821 =
1$
1%
#116000000
0$
0%
#116500000
b1011100 +
b1101001 .
r0.9505882352941115 =
r0.900705882352945 D
r0.8508235294117625 K
r0.8009411764705934 R
1$
1%
#117000000
0$
0%
#117500000
b1011101 +
b1101010 .
r0.7971764705882405 R
r0.8475294117647038 K
r0.8978823529411804 D
r0.948235294117641 =
1$
1%
#118000000
0$
0%
#118500000
b1011111 +
b1101011 .
r0.9458823529411704 =
r0.8950588235294157 D
r0.844235294117645 K
r0.7934117647058876 R
1$
1%
#119000000
0$
0%
#119500000
b1011110 +
b1101100 .
r0.7896470588235347 R
r0.8409411764705862 K
r0.892235294117651 D
r0.9435294117646998 =
1$
1%
#120000000
0$
0%
#120500000
b1011010 +
b1101101 .
r0.9411764705882293 =
r0.8894117647058863 D
r0.8376470588235274 K
r0.7858823529411818 R
1$
1%
#121000000
0$
0%
#121500000
b1011011 +
b1101110 .
r0.7821176470588289 R
r0.8343529411764686 K
r0.8865882352941217 D
r0.9388235294117587 =
1$
1%
#122000000
0$
0%
#122500000
b1011001 +
b1101111 .
r0.9364705882352882 =
r0.883764705882357 D
r0.8310588235294099 K
r0.778352941176476 R
1$
1%
#123000000
0$
0%
#123500000
b1011000 +
b1110000 .
r0.7745882352941231 R
r0.8277647058823511 K
r0.8809411764705923 D
r0.9341176470588176 =
1$
1%
#124000000
0$
0%
#124500000
b1001000 +
b1110001 .
r0.9317647058823471 =
r0.8781176470588277 D
r0.8244705882352923 K
r0.7708235294117702 R
1$
1%
#125000000
0$
0%
#125500000
b1001001 +
b1110010 .
r0.7670588235294173 R
r0.8211764705882335 K
r0.875294117647063 D
r0.9294117647058765 =
1$
1%
#126000000
0$
0%
#126500000
b1001011 +
b1110011 .
r0.9270588235294059 =
r0.8724705882352983 D
r0.8178823529411747 K
r0.7632941176470645 R
1$
1%
#127000000
0$
0%
#127500000
b1001010 +
b1110100 .
r0.7595294117647116 R
r0.8145882352941159 K
r0.8696470588235337 D
r0.9247058823529354 =
1$
1%
#128000000
0$
0%
#128500000
b1001110 +
b1110101 .
r0.9223529411764648 =
r0.866823529411769 D
r0.8112941176470572 K
r0.7557647058823587 R
1$
1%
#129000000
0$
0%
#129500000
b1001111 +
b1110110 .
r0.7520000000000058 R
r0.8079999999999984 K
r0.8640000000000043 D
r0.9199999999999943 =
1$
1%
#130000000
0$
0%
#130500000
b1001101 +
b1110111 .
r0.9176470588235237 =
r0.8611764705882397 D
r0.8047058823529396 K
r0.7482352941176529 R
1$
1%
#131000000
0$
0%
#131500000
b1001100 +
b1111000 .
r0.7444705882353 R
r0.8014117647058808 K
r0.858352941176475 D
r0.9152941176470532 =
1$
1%
#132000000
0$
0%
#132500000
b1000100 +
b1111001 .
r0.9129411764705826 =
r0.8555294117647103 D
r0.798117647058822 K
r0.7407058823529471 R
1$
1%
#133000000
0$
0%
#133500000
b1000101 +
b1111010 .
r0.7369411764705942 R
r0.7948235294117633 K
r0.8527058823529456 D
r0.910588235294112 =
1$
1%
#134000000
0$
0%
#134500000
b1000111 +
b1111011 .
r0.9082352941176415 =
r0.849882352941181 D
r0.7915294117647045 K
r0.7331764705882413 R
1$
1%
#135000000
0$
0%
#135500000
b1000110 +
b1111100 .
r0.7294117647058884 R
r0.7882352941176457 K
r0.8470588235294163 D
r0.9058823529411709 =
1$
1%
#136000000
0$
0%
#136500000
b1000010 +
b1111101 .
r0.9035294117647004 =
r0.8442352941176516 D
r0.7849411764705869 K
r0.7256470588235355 R
1$
1%
#137000000
0$
0%
#137500000
b1000011 +
b1111110 .
r0.7218823529411826 R
r0.7816470588235281 K
r0.841411764705887 D
r0.9011764705882298 =
1$
1%
#138000000
0$
0%
#138500000
b1000001 +
b1111111 .
r0.8988235294117592 =
r0.8385882352941223 D
r0.7783529411764694 K
r0.7181176470588297 R
1$
1%
#139000000
0$
0%
#139500000
b1000000 +
b10000000 .
r0.7143529411764769 R
r0.7750588235294106 K
r0.8357647058823576 D
r0.8964705882352887 =
1$
1%
#140000000
0$
0%
#140500000
b11000000 +
b10000001 .
r0.8941176470588181 =
r0.832941176470593 D
r0.7717647058823518 K
r0.710588235294124 R
1$
1%
#141000000
0$
0%
#141500000
b11000001 +
b10000010 .
r0.7068235294117711 R
r0.768470588235293 K
r0.8301176470588283 D
r0.8917647058823476 =
1$
1%
#142000000
0$
0%
#142500000
b11000011 +
b10000011 .
r0.889411764705877 =
r0.8272941176470636 D
r0.7651764705882342 K
r0.7030588235294182 R
1$
1%
#143000000
0$
0%
#143500000
b11000010 +
b10000100 .
r0.6992941176470653 R
r0.7618823529411755 K
r0.824470588235299 D
r0.8870588235294065 =
1$
1%
#144000000
0$
0%
#144500000
b11000110 +
b10000101 .
r0.8847058823529359 =
r0.8216470588235343 D
r0.7585882352941167 K
r0.6955294117647124 R
1$
1%
#145000000
0$
0%
#145500000
b11000111 +
b10000110 .
r0.6917647058823595 R
r0.7552941176470579 K
r0.8188235294117696 D
r0.8823529411764653 =
1$
1%
#146000000
0$
0%
#146500000
b11000101 +
b10000111 .
r0.8799999999999948 =
r0.8160000000000049 D
r0.7519999999999991 K
r0.6880000000000066 R
1$
1%
#147000000
0$
0%
#147500000
b11000100 +
b10001000 .
r0.6842352941176537 R
r0.7487058823529403 K
r0.8131764705882403 D
r0.8776470588235242 =
1$
1%
#148000000
0$
0%
#148500000
b11001100 +
b10001001 .
r0.8752941176470537 =
r0.8103529411764756 D
r0.7454117647058816 K
r0.6804705882353008 R
1$
1%
#149000000
0$
0%
#149500000
b11001101 +
b10001010 .
r0.6767058823529479 R
r0.7421176470588228 K
r0.8075294117647109 D
r0.8729411764705831 =
1$
1%
#150000000
0$
0%
#150500000
b11001111 +
b10001011 .
r0.8705882352941126 =
r0.8047058823529463 D
r0.738823529411764 K
r0.672941176470595 R
1$
1%
#151000000
0$
0%
#151500000
b11001110 +
b10001100 .
r0.6691764705882421 R
r0.7355294117647052 K
r0.8018823529411816 D
r0.868235294117642 =
1$
1%
#152000000
0$
0%
#152500000
b11001010 +
b10001101 .
r0.8658823529411714 =
r0.7990588235294169 D
r0.7322352941176464 K
r0.6654117647058893 R
1$
1%
#153000000
0$
0%
#153500000
b11001011 +
b10001110 .
r0.6616470588235364 R
r0.7289411764705876 K
r0.7962352941176523 D
r0.8635294117647009 =
1$
1%
#154000000
0$
0%
#154500000
b11001001 +
b10001111 .
r0.8611764705882303 =
r0.7934117647058876 D
r0.7256470588235289 K
r0.6578823529411835 R
1$
1%
#155000000
0$
0%
#155500000
b11001000 +
b10010000 .
r0.6541176470588306 R
r0.7223529411764701 K
r0.7905882352941229 D
r0.8588235294117598 =
1$
1%
#156000000
0$
0%
#156500000
b11011000 +
b10010001 .
r0.8564705882352892 =
r0.7877647058823583 D
r0.7190588235294113 K
r0.6503529411764777 R
1$
1%
#157000000
0$
0%
#157500000
b11011001 +
b10010010 .
r0.6465882352941248 R
r0.7157647058823525 K
r0.7849411764705936 D
r0.8541176470588187 =
1$
1%
#158000000
0$
0%
#158500000
b11011011 +
b10010011 .
r0.8517647058823481 =
r0.7821176470588289 D
r0.7124705882352937 K
r0.6428235294117719 R
1$
1%
#159000000
0$
0%
#159500000
b11011010 +
b10010100 .
r0.639058823529419 R
r0.709176470588235 K
r0.7792941176470642 D
r0.8494117647058775 =
1$
1%
#160000000
0$
0%
#160500000
b11011110 +
b10010101 .
r0.847058823529407 =
r0.7764705882352996 D
r0.7058823529411762 K
r0.6352941176470661 R
1$
1%
#161000000
0$
0%
#161500000
b11011111 +
b10010110 .
r0.6315294117647132 R
r0.7025882352941174 K
r0.7736470588235349 D
r0.8447058823529364 =
1$
1%
#162000000
0$
0%
#162500000
b11011101 +
b10010111 .
r0.8423529411764659 =
r0.7708235294117702 D
r0.6992941176470586 K
r0.6277647058823603 R
1$
1%
#163000000
0$
0%
#163500000
b11011100 +
b10011000 .
r0.6240000000000074 R
r0.6959999999999998 K
r0.7680000000000056 D
r0.8399999999999953 =
1$
1%
#164000000
0$
0%
#164500000
b11010100 +
b10011001 .
r0.8376470588235247 =
r0.7651764705882409 D
r0.6927058823529411 K
r0.6202352941176545 R
1$
1%
#165000000
0$
0%
#165500000
b11010101 +
b10011010 .
r0.6164705882353017 R
r0.6894117647058823 K
r0.7623529411764762 D
r0.8352941176470542 =
1$
1%
#166000000
0$
0%
#166500000
b11010111 +
b10011011 .
r0.8329411764705836 =
r0.7595294117647116 D
r0.6861176470588235 K
r0.6127058823529488 R
1$
1%
#167000000
0$
0%
#167500000
b11010110 +
b10011100 .
r0.6089411764705959 R
r0.6828235294117647 K
r0.7567058823529469 D
r0.8305882352941131 =
1$
1%
#168000000
0$
0%
#168500000
b11010010 +
b10011101 .
r0.8282352941176425 =
r0.7538823529411822 D
r0.6795294117647059 K
r0.605176470588243 R
1$
1%
