project/verilog/stateMachine_tb.vcd
$date
	Sat Nov 13 11:45:03 2021
$end
$version
	Icarus Verilog
$end
$timescale
	1ps
$end
$scope module stateMachine_tb $end
$var wire 1 ! anaReset $end
$var wire 8 " pixData [7:0] $end
$var wire 1 # read_4 $end
$var wire 1 $ read_3 $end
$var wire 1 % read_2 $end
$var wire 1 & read_1 $end
$var wire 1 ' expose $end
$var wire 1 ( erase $end
$var wire 1 ) convert $end
$var wire 1 * anaRamp $end
$var wire 1 + anaBias1 $end
$var reg 1 , clk $end
$var reg 8 - data [7:0] $end
$var reg 32 . pixelDataOut [31:0] $end
$var reg 1 / reset $end
$var integer 32 0 fo [31:0] $end
$var integer 32 1 y [31:0] $end
$scope module PA $end
$var wire 8 2 DATA [7:0] $end
$var wire 1 * RAMP $end
$var wire 1 ! RESET $end
$var wire 1 + VBN1 $end
$var wire 1 # READ_4 $end
$var wire 1 $ READ_3 $end
$var wire 1 % READ_2 $end
$var wire 1 & READ_1 $end
$var wire 1 ' EXPOSE $end
$var wire 1 ( ERASE $end
$scope module PS1 $end
$var wire 8 3 DATA [7:0] $end
$var wire 1 * RAMP $end
$var wire 1 ! RESET $end
$var wire 1 + VBN1 $end
$var wire 1 & READ $end
$var wire 1 ' EXPOSE $end
$var wire 1 ( ERASE $end
$var reg 1 4 cmp $end
$var reg 8 5 p_data [7:0] $end
$var real 1 6 adc $end
$var real 1 7 lsb $end
$var real 1 8 tmp $end
$var real 1 9 v_erase $end
$upscope $end
$scope module PS2 $end
$var wire 8 : DATA [7:0] $end
$var wire 1 * RAMP $end
$var wire 1 ! RESET $end
$var wire 1 + VBN1 $end
$var wire 1 % READ $end
$var wire 1 ' EXPOSE $end
$var wire 1 ( ERASE $end
$var reg 1 ; cmp $end
$var reg 8 < p_data [7:0] $end
$var real 1 = adc $end
$var real 1 > lsb $end
$var real 1 ? tmp $end
$var real 1 @ v_erase $end
$upscope $end
$scope module PS3 $end
$var wire 8 A DATA [7:0] $end
$var wire 1 * RAMP $end
$var wire 1 ! RESET $end
$var wire 1 + VBN1 $end
$var wire 1 $ READ $end
$var wire 1 ' EXPOSE $end
$var wire 1 ( ERASE $end
$var reg 1 B cmp $end
$var reg 8 C p_data [7:0] $end
$var real 1 D adc $end
$var real 1 E lsb $end
$var real 1 F tmp $end
$var real 1 G v_erase $end
$upscope $end
$scope module PS4 $end
$var wire 8 H DATA [7:0] $end
$var wire 1 * RAMP $end
$var wire 1 ! RESET $end
$var wire 1 + VBN1 $end
$var wire 1 # READ $end
$var wire 1 ' EXPOSE $end
$var wire 1 ( ERASE $end
$var reg 1 I cmp $end
$var reg 8 J p_data [7:0] $end
$var real 1 K adc $end
$var real 1 L lsb $end
$var real 1 M tmp $end
$var real 1 N v_erase $end
$upscope $end
$upscope $end
$scope module SM $end
$var wire 1 , clk $end
$var wire 1 / reset $end
$var reg 1 ) convert $end
$var reg 1 O counter_reset $end
$var reg 1 ( erase $end
$var reg 1 ' expose $end
$var reg 8 P gray_counter [7:0] $end
$var reg 3 Q next_state [2:0] $end
$var reg 8 R q [7:0] $end
$var reg 1 & read_1 $end
$var reg 1 % read_2 $end
$var reg 1 $ read_3 $end
$var reg 1 # read_4 $end
$var reg 3 S state [2:0] $end
$upscope $end
$upscope $end
$enddefinitions $end
#500000
$dumpvars
b0 S
b0 R
b0 Q
bx P
1O
r1.2 N
r0 M
r0.004705882352941176 L
r0 K
bx J
xI
bx H
r1.2 G
r0 F
r0.004705882352941176 E
r0 D
bx C
xB
bx A
r1.2 @
r0 ?
r0.004705882352941176 >
r0 =
bx <
x;
bx :
r1.2 9
r0 8
r0.004705882352941176 7
r0 6
bx 5
x4
bx 3
bx 2
b0 1
b10000000000000000000000000000011 0
0/
b0 .
b0 -
1,
x+
0*
0)
x(
x'
x&
x%
x$
x#
bx "
1!
$end
#1000000
b0 "
b0 2
b0 3
b0 :
b0 A
b0 H
0I
b0 J
r1.2 M
0B
b0 C
r1.2 F
0;
b0 <
r1.2 ?
04
b0 5
r1.2 8
0'
0#
0$
0%
0&
1(
0+
0,
#1500000
b0 P
0O
1,
#2000000
0,
#2500000
b1 R
1,
#3000000
0,
#3500000
b1 P
b10 R
1,
#4000000
0,
#4500000
b11 P
b11 R
1,
#5000000
0,
#5500000
b10 P
b100 R
1,
#6000000
0,
#6500000
b110 P
b101 R
1,
#7000000
0,
#7500000
b111 P
b110 R
1,
#8000000
0,
#8500000
b101 P
b111 R
1,
#9000000
0,
#9500000
b111 S
b1 Q
b100 P
b1000 R
1,
#10000000
0(
0,
#10500000
b1 S
b1100 P
b0 R
1O
1,
#11000000
1'
0,
#11500000
b0 P
r1.196235294117647 M
r1.196705882352941 F
r1.197176470588235 ?
r1.197647058823529 8
1+
0O
1,
#12000000
0+
0,
#12500000
b1 R
r1.195294117647059 8
r1.194352941176471 ?
r1.193411764705882 F
r1.192470588235294 M
1+
1,
#13000000
0+
0,
#13500000
b1 P
b10 R
r1.188705882352941 M
r1.190117647058823 F
r1.191529411764706 ?
r1.192941176470588 8
1+
1,
#14000000
0+
0,
#14500000
b11 P
b11 R
r1.190588235294117 8
r1.188705882352941 ?
r1.186823529411764 F
r1.184941176470588 M
1+
1,
#15000000
0+
0,
#15500000
b10 P
b100 R
r1.181176470588235 M
r1.183529411764705 F
r1.185882352941177 ?
r1.188235294117647 8
1+
1,
#16000000
0+
0,
#16500000
b110 P
b101 R
r1.185882352941176 8
r1.183058823529412 ?
r1.180235294117647 F
r1.177411764705883 M
1+
1,
#17000000
0+
0,
#17500000
b111 P
b110 R
r1.17364705882353 M
r1.176941176470588 F
r1.180235294117647 ?
r1.183529411764705 8
1+
1,
#18000000
0+
0,
#18500000
b101 P
b111 R
r1.181176470588235 8
r1.177411764705883 ?
r1.173647058823529 F
r1.169882352941177 M
1+
1,
#19000000
0+
0,
#19500000
b100 P
b1000 R
r1.166117647058824 M
r1.17035294117647 F
r1.174588235294118 ?
r1.178823529411764 8
1+
1,
#20000000
0+
0,
#20500000
b1100 P
b1001 R
r1.176470588235293 8
r1.171764705882353 ?
r1.167058823529411 F
r1.162352941176471 M
1+
1,
#21000000
0+
0,
#21500000
b1101 P
b1010 R
r1.158588235294118 M
r1.163764705882352 F
r1.168941176470589 ?
r1.174117647058823 8
1+
1,
#22000000
0+
0,
#22500000
b1111 P
b1011 R
r1.171764705882352 8
r1.166117647058824 ?
r1.160470588235293 F
r1.154823529411765 M
1+
1,
#23000000
0+
0,
#23500000
b1110 P
b1100 R
r1.151058823529412 M
r1.157176470588234 F
r1.163294117647059 ?
r1.169411764705881 8
1+
1,
#24000000
0+
0,
#24500000
b1010 P
b1101 R
r1.167058823529411 8
r1.160470588235295 ?
r1.153882352941175 F
r1.147294117647059 M
1+
1,
#25000000
0+
0,
#25500000
b1011 P
b1110 R
r1.143529411764707 M
r1.150588235294117 F
r1.15764705882353 ?
r1.16470588235294 8
1+
1,
#26000000
0+
0,
#26500000
b1001 P
b1111 R
r1.162352941176469 8
r1.154823529411765 ?
r1.147294117647058 F
r1.139764705882354 M
1+
1,
#27000000
0+
0,
#27500000
b1000 P
b10000 R
r1.136000000000001 M
r1.143999999999999 F
r1.152000000000001 ?
r1.159999999999999 8
1+
1,
#28000000
0+
0,
#28500000
b11000 P
b10001 R
r1.157647058823528 8
r1.149176470588236 ?
r1.14070588235294 F
r1.132235294117648 M
1+
1,
#29000000
0+
0,
#29500000
b11001 P
b10010 R
r1.128470588235295 M
r1.137411764705881 F
r1.146352941176471 ?
r1.155294117647057 8
1+
1,
#30000000
0+
0,
#30500000
b11011 P
b10011 R
r1.152941176470587 8
r1.143529411764707 ?
r1.134117647058822 F
r1.124705882352942 M
1+
1,
#31000000
0+
0,
#31500000
b11010 P
b10100 R
r1.120941176470589 M
r1.130823529411763 F
r1.140705882352942 ?
r1.150588235294116 8
1+
1,
#32000000
0+
0,
#32500000
b11110 P
b10101 R
r1.148235294117645 8
r1.137882352941177 ?
r1.127529411764704 F
r1.117176470588236 M
1+
1,
#33000000
0+
0,
#33500000
b11111 P
b10110 R
r1.113411764705883 M
r1.124235294117645 F
r1.135058823529413 ?
r1.145882352941175 8
1+
1,
#34000000
0+
0,
#34500000
b11101 P
b10111 R
r1.143529411764704 8
r1.132235294117648 ?
r1.120941176470587 F
r1.109647058823531 M
1+
1,
#35000000
0+
0,
#35500000
b11100 P
b11000 R
r1.105882352941178 M
r1.117647058823528 F
r1.129411764705883 ?
r1.141176470588233 8
1+
1,
#36000000
0+
0,
#36500000
b10100 P
b11001 R
r1.138823529411763 8
r1.126588235294119 ?
r1.114352941176469 F
r1.102117647058825 M
1+
1,
#37000000
0+
0,
#37500000
b10101 P
b11010 R
r1.098352941176472 M
r1.11105882352941 F
r1.123764705882354 ?
r1.136470588235292 8
1+
1,
#38000000
0+
0,
#38500000
b10111 P
b11011 R
r1.134117647058821 8
r1.120941176470589 ?
r1.107764705882351 F
r1.094588235294119 M
1+
1,
#39000000
0+
0,
#39500000
b10110 P
b11100 R
r1.090823529411766 M
r1.104470588235292 F
r1.118117647058825 ?
r1.131764705882351 8
1+
1,
#40000000
0+
0,
#40500000
b10010 P
b11101 R
r1.12941176470588 8
r1.11529411764706 ?
r1.101176470588233 F
r1.087058823529413 M
1+
1,
#41000000
0+
0,
#41500000
b10011 P
b11110 R
r1.08329411764706 M
r1.097882352941174 F
r1.112470588235295 ?
r1.127058823529409 8
1+
1,
#42000000
0+
0,
#42500000
b10001 P
b11111 R
r1.124705882352939 8
r1.109647058823531 ?
r1.094588235294115 F
r1.079529411764707 M
1+
1,
#43000000
0+
0,
#43500000
b10000 P
b100000 R
r1.075764705882355 M
r1.091294117647057 F
r1.106823529411766 ?
r1.122352941176468 8
1+
1,
#44000000
0+
0,
#44500000
b110000 P
b100001 R
r1.119999999999997 8
r1.104000000000001 ?
r1.087999999999998 F
r1.072000000000002 M
1+
1,
#45000000
0+
0,
#45500000
b110001 P
b100010 R
r1.068235294117649 M
r1.084705882352939 F
r1.101176470588237 ?
r1.117647058823527 8
1+
1,
#46000000
0+
0,
#46500000
b110011 P
b100011 R
r1.115294117647056 8
r1.098352941176472 ?
r1.08141176470588 F
r1.064470588235296 M
1+
1,
#47000000
0+
0,
#47500000
b110010 P
b100100 R
r1.060705882352943 M
r1.078117647058821 F
r1.095529411764707 ?
r1.112941176470585 8
1+
1,
#48000000
0+
0,
#48500000
b110110 P
b100101 R
r1.110588235294115 8
r1.092705882352943 ?
r1.074823529411762 F
r1.05694117647059 M
1+
1,
#49000000
0+
0,
#49500000
b110111 P
b100110 R
r1.053176470588237 M
r1.071529411764703 F
r1.089882352941178 ?
r1.108235294117644 8
1+
1,
#50000000
0+
0,
#50500000
b110101 P
b100111 R
r1.105882352941173 8
r1.087058823529413 ?
r1.068235294117644 F
r1.049411764705884 M
1+
1,
#51000000
0+
0,
#51500000
b110100 P
b101000 R
r1.045647058823531 M
r1.064941176470585 F
r1.084235294117649 ?
r1.103529411764703 8
1+
1,
#52000000
0+
0,
#52500000
b111100 P
b101001 R
r1.101176470588232 8
r1.081411764705884 ?
r1.061647058823527 F
r1.041882352941178 M
1+
1,
#53000000
0+
0,
#53500000
b111101 P
b101010 R
r1.038117647058826 M
r1.058352941176468 F
r1.078588235294119 ?
r1.098823529411761 8
1+
1,
#54000000
0+
0,
#54500000
b111111 P
b101011 R
r1.096470588235291 8
r1.075764705882355 ?
r1.055058823529409 F
r1.034352941176473 M
1+
1,
#55000000
0+
0,
#55500000
b111110 P
b101100 R
r1.03058823529412 M
r1.05176470588235 F
r1.07294117647059 ?
r1.09411764705882 8
1+
1,
#56000000
0+
0,
#56500000
b111010 P
b101101 R
r1.091764705882349 8
r1.070117647058825 ?
r1.048470588235291 F
r1.026823529411767 M
1+
1,
#57000000
0+
0,
#57500000
b111011 P
b101110 R
r1.023058823529414 M
r1.045176470588232 F
r1.067294117647061 ?
r1.089411764705879 8
1+
1,
#58000000
0+
0,
#58500000
b111001 P
b101111 R
r1.087058823529408 8
r1.064470588235296 ?
r1.041882352941173 F
r1.019294117647061 M
1+
1,
#59000000
0+
0,
#59500000
b111000 P
b110000 R
r1.015529411764708 M
r1.038588235294114 F
r1.061647058823531 ?
r1.084705882352937 8
1+
1,
#60000000
0+
0,
#60500000
b101000 P
b110001 R
r1.082352941176467 8
r1.058823529411766 ?
r1.035294117647055 F
r1.011764705882355 M
1+
1,
#61000000
0+
0,
#61500000
b101001 P
b110010 R
r1.008000000000002 M
r1.031999999999996 F
r1.056000000000002 ?
r1.079999999999996 8
1+
1,
#62000000
0+
0,
#62500000
b101011 P
b110011 R
r1.077647058823525 8
r1.053176470588237 ?
r1.028705882352938 F
r1.00423529411765 M
1+
1,
#63000000
0+
0,
#63500000
b101010 P
b110100 R
r1.000470588235297 M
r1.025411764705879 F
r1.050352941176472 ?
r1.075294117647055 8
1+
1,
#64000000
0+
0,
#64500000
b101110 P
b110101 R
r1.072941176470584 8
r1.047529411764708 ?
r1.02211764705882 F
r0.9967058823529438 M
1+
1,
#65000000
0+
0,
#65500000
b101111 P
b110110 R
r0.9929411764705909 M
r1.018823529411761 F
r1.044705882352943 ?
r1.070588235294113 8
1+
1,
#66000000
0+
0,
#66500000
b101101 P
b110111 R
r1.068235294117643 8
r1.041882352941178 ?
r1.015529411764702 F
r0.989176470588238 M
1+
1,
#67000000
0+
0,
#67500000
b101100 P
b111000 R
r0.9854117647058851 M
r1.012235294117643 F
r1.039058823529414 ?
r1.065882352941172 8
1+
1,
#68000000
0+
0,
#68500000
b100100 P
b111001 R
r1.063529411764701 8
r1.036235294117649 ?
r1.008941176470584 F
r0.9816470588235322 M
1+
1,
#69000000
0+
0,
#69500000
b100101 P
b111010 R
r0.9778823529411793 M
r1.005647058823525 F
r1.033411764705884 ?
r1.061176470588231 8
1+
1,
#70000000
0+
0,
#70500000
b100111 P
b111011 R
r1.05882352941176 8
r1.03058823529412 ?
r1.002352941176466 F
r0.9741176470588264 M
1+
1,
#71000000
0+
0,
#71500000
b100110 P
b111100 R
r0.9703529411764735 M
r0.9990588235294077 F
r1.027764705882355 ?
r1.056470588235289 8
1+
1,
#72000000
0+
0,
#72500000
b100010 P
b111101 R
r1.054117647058818 8
r1.02494117647059 ?
r0.9957647058823489 F
r0.9665882352941206 M
1+
1,
#73000000
0+
0,
#73500000
b100011 P
b111110 R
r0.9628235294117677 M
r0.9924705882352901 F
r1.022117647058826 ?
r1.051764705882348 8
1+
1,
#74000000
0+
0,
#74500000
b100001 P
b111111 R
r1.049411764705877 8
r1.019294117647061 ?
r0.9891764705882313 F
r0.9590588235294149 M
1+
1,
#75000000
0+
0,
#75500000
b100000 P
b1000000 R
r0.955294117647062 M
r0.9858823529411725 F
r1.016470588235296 ?
r1.047058823529406 8
1+
1,
#76000000
0+
0,
#76500000
b1100000 P
b1000001 R
r1.044705882352936 8
r1.013647058823532 ?
r0.9825882352941138 F
r0.9515294117647091 M
1+
1,
#77000000
0+
0,
#77500000
b1100001 P
b1000010 R
r0.9477647058823562 M
r0.979294117647055 F
r1.010823529411767 ?
r1.042352941176465 8
1+
1,
#78000000
0+
0,
#78500000
b1100011 P
b1000011 R
r1.039999999999994 8
r1.008000000000002 ?
r0.9759999999999962 F
r0.9440000000000033 M
1+
1,
#79000000
0+
0,
#79500000
b1100010 P
b1000100 R
r0.9402352941176504 M
r0.9727058823529374 F
r1.005176470588238 ?
r1.037647058823524 8
1+
1,
#80000000
0+
0,
#80500000
b1100110 P
b1000101 R
r1.035294117647053 8
r1.002352941176473 ?
r0.9694117647058786 F
r0.9364705882352975 M
1+
1,
#81000000
0+
0,
#81500000
b1100111 P
b1000110 R
r0.9327058823529446 M
r0.9661176470588199 F
r0.9995294117647084 ?
r1.032941176470582 8
1+
1,
#82000000
0+
0,
#82500000
b1100101 P
b1000111 R
r1.030588235294112 8
r0.9967058823529438 ?
r0.9628235294117611 F
r0.9289411764705917 M
1+
1,
#83000000
0+
0,
#83500000
b1100100 P
b1001000 R
r0.9251764705882388 M
r0.9595294117647023 F
r0.9938823529411791 ?
r1.028235294117641 8
1+
1,
#84000000
0+
0,
#84500000
b1101100 P
b1001001 R
r1.02588235294117 8
r0.9910588235294144 ?
r0.9562352941176435 F
r0.9214117647058859 M
1+
1,
#85000000
0+
0,
#85500000
b1101101 P
b1001010 R
r0.917647058823533 M
r0.9529411764705847 F
r0.9882352941176498 ?
r1.0235294117647 8
1+
1,
#86000000
0+
0,
#86500000
b1101111 P
b1001011 R
r1.021176470588229 8
r0.9854117647058851 ?
r0.949647058823526 F
r0.9138823529411801 M
1+
1,
#87000000
0+
0,
#87500000
b1101110 P
b1001100 R
r0.9101176470588273 M
r0.9463529411764672 F
r0.9825882352941204 ?
r1.018823529411758 8
1+
1,
#88000000
0+
0,
#88500000
b1101010 P
b1001101 R
r1.016470588235288 8
r0.9797647058823558 ?
r0.9430588235294084 F
r0.9063529411764744 M
1+
1,
#89000000
0+
0,
#89500000
b1101011 P
b1001110 R
r0.9025882352941215 M
r0.9397647058823496 F
r0.9769411764705911 ?
r1.014117647058817 8
1+
1,
#90000000
0+
0,
#90500000
b1101001 P
b1001111 R
r1.011764705882346 8
r0.9741176470588264 ?
r0.9364705882352908 F
r0.8988235294117686 M
1+
1,
#91000000
0+
0,
#91500000
b1101000 P
b1010000 R
r0.8950588235294157 M
r0.9331764705882321 F
r0.9712941176470617 ?
r1.009411764705876 8
1+
1,
#92000000
0+
0,
#92500000
b1111000 P
b1010001 R
r1.007058823529405 8
r0.9684705882352971 ?
r0.9298823529411733 F
r0.8912941176470628 M
1+
1,
#93000000
0+
0,
#93500000
b1111001 P
b1010010 R
r0.8875294117647099 M
r0.9265882352941145 F
r0.9656470588235324 ?
r1.004705882352934 8
1+
1,
#94000000
0+
0,
#94500000
b1111011 P
b1010011 R
r1.002352941176464 8
r0.9628235294117677 ?
r0.9232941176470557 F
r0.883764705882357 M
1+
1,
#95000000
0+
0,
#95500000
b1111010 P
b1010100 R
r0.8800000000000041 M
r0.9199999999999969 F
r0.9600000000000031 ?
r0.9999999999999932 8
1+
1,
#96000000
0+
0,
#96500000
b1111110 P
b1010101 R
r0.9976470588235227 8
r0.9571764705882384 ?
r0.9167058823529382 F
r0.8762352941176512 M
1+
1,
#97000000
0+
0,
#97500000
b1111111 P
b1010110 R
r0.8724705882352983 M
r0.9134117647058794 F
r0.9543529411764737 ?
r0.9952941176470521 8
1+
1,
#98000000
0+
0,
#98500000
b1111101 P
b1010111 R
r0.9929411764705816 8
r0.9515294117647091 ?
r0.9101176470588206 F
r0.8687058823529454 M
1+
1,
#99000000
0+
0,
#99500000
b1111100 P
b1011000 R
r0.8649411764705925 M
r0.9068235294117618 F
r0.9487058823529444 ?
r0.990588235294111 8
1+
1,
#100000000
0+
0,
#100500000
b1110100 P
b1011001 R
r0.9882352941176404 8
r0.9458823529411797 ?
r0.903529411764703 F
r0.8611764705882397 M
1+
1,
#101000000
0+
0,
#101500000
b1110101 P
b1011010 R
r0.8574117647058868 M
r0.9002352941176442 F
r0.9430588235294151 ?
r0.9858823529411699 8
1+
1,
#102000000
0+
0,
#102500000
b1110111 P
b1011011 R
r0.9835294117646993 8
r0.9402352941176504 ?
r0.8969411764705855 F
r0.8536470588235339 M
1+
1,
#103000000
0+
0,
#103500000
b1110110 P
b1011100 R
r0.849882352941181 M
r0.8936470588235267 F
r0.9374117647058857 ?
r0.9811764705882288 8
1+
1,
#104000000
0+
0,
#104500000
b1110010 P
b1011101 R
r0.9788235294117582 8
r0.9345882352941211 ?
r0.8903529411764679 F
r0.8461176470588281 M
1+
1,
#105000000
0+
0,
#105500000
b1110011 P
b1011110 R
r0.8423529411764752 M
r0.8870588235294091 F
r0.9317647058823564 ?
r0.9764705882352877 8
1+
1,
#106000000
0+
0,
#106500000
b1110001 P
b1011111 R
r0.9741176470588171 8
r0.9289411764705917 ?
r0.8837647058823503 F
r0.8385882352941223 M
1+
1,
#107000000
0+
0,
#107500000
b1110000 P
b1100000 R
r0.8348235294117694 M
r0.8804705882352916 F
r0.926117647058827 ?
r0.9717647058823465 8
1+
1,
#108000000
0+
0,
#108500000
b1010000 P
b1100001 R
r0.969411764705876 8
r0.9232941176470624 ?
r0.8771764705882328 F
r0.8310588235294165 M
1+
1,
#109000000
0+
0,
#109500000
b1010001 P
b1100010 R
r0.8272941176470636 M
r0.873882352941174 F
r0.9204705882352977 ?
r0.9670588235294054 8
1+
1,
#110000000
0+
0,
#110500000
b1010011 P
b1100011 R
r0.9647058823529349 8
r0.917647058823533 ?
r0.8705882352941152 F
r0.8235294117647107 M
1+
1,
#111000000
0+
0,
#111500000
b1010010 P
b1100100 R
r0.8197647058823578 M
r0.8672941176470564 F
r0.9148235294117684 ?
r0.9623529411764643 8
1+
1,
#112000000
0+
0,
#112500000
b1010110 P
b1100101 R
r0.9599999999999937 8
r0.9120000000000037 ?
r0.8639999999999977 F
r0.8160000000000049 M
1+
1,
#113000000
0+
0,
#113500000
b1010111 P
b1100110 R
r0.8122352941176521 M
r0.8607058823529389 F
r0.909176470588239 ?
r0.9576470588235232 8
1+
1,
#114000000
0+
0,
#114500000
b1010101 P
b1100111 R
r0.9552941176470526 8
r0.9063529411764744 ?
r0.8574117647058801 F
r0.8084705882352992 M
1+
1,
#115000000
0+
0,
#115500000
b1010100 P
b1101000 R
r0.8047058823529463 M
r0.8541176470588213 F
r0.9035294117647097 ?
r0.9529411764705821 8
1+
1,
#116000000
0+
0,
#116500000
b1011100 P
b1101001 R
r0.9505882352941115 8
r0.900705882352945 ?
r0.8508235294117625 F
r0.8009411764705934 M
1+
1,
#117000000
0+
0,
#117500000
b1011101 P
b1101010 R
r0.7971764705882405 M
r0.8475294117647038 F
r0.8978823529411804 ?
r0.948235294117641 8
1+
1,
#118000000
0+
0,
#118500000
b1011111 P
b1101011 R
r0.9458823529411704 8
r0.8950588235294157 ?
r0.844235294117645 F
r0.7934117647058876 M
1+
1,
#119000000
0+
0,
#119500000
b1011110 P
b1101100 R
r0.7896470588235347 M
r0.8409411764705862 F
r0.892235294117651 ?
r0.9435294117646998 8
1+
1,
#120000000
0+
0,
#120500000
b1011010 P
b1101101 R
r0.9411764705882293 8
r0.8894117647058863 ?
r0.8376470588235274 F
r0.7858823529411818 M
1+
1,
#121000000
0+
0,
#121500000
b1011011 P
b1101110 R
r0.7821176470588289 M
r0.8343529411764686 F
r0.8865882352941217 ?
r0.9388235294117587 8
1+
1,
#122000000
0+
0,
#122500000
b1011001 P
b1101111 R
r0.9364705882352882 8
r0.883764705882357 ?
r0.8310588235294099 F
r0.778352941176476 M
1+
1,
#123000000
0+
0,
#123500000
b1011000 P
b1110000 R
r0.7745882352941231 M
r0.8277647058823511 F
r0.8809411764705923 ?
r0.9341176470588176 8
1+
1,
#124000000
0+
0,
#124500000
b1001000 P
b1110001 R
r0.9317647058823471 8
r0.8781176470588277 ?
r0.8244705882352923 F
r0.7708235294117702 M
1+
1,
#125000000
0+
0,
#125500000
b1001001 P
b1110010 R
r0.7670588235294173 M
r0.8211764705882335 F
r0.875294117647063 ?
r0.9294117647058765 8
1+
1,
#126000000
0+
0,
#126500000
b1001011 P
b1110011 R
r0.9270588235294059 8
r0.8724705882352983 ?
r0.8178823529411747 F
r0.7632941176470645 M
1+
1,
#127000000
0+
0,
#127500000
b1001010 P
b1110100 R
r0.7595294117647116 M
r0.8145882352941159 F
r0.8696470588235337 ?
r0.9247058823529354 8
1+
1,
#128000000
0+
0,
#128500000
b1001110 P
b1110101 R
r0.9223529411764648 8
r0.866823529411769 ?
r0.8112941176470572 F
r0.7557647058823587 M
1+
1,
#129000000
0+
0,
#129500000
b1001111 P
b1110110 R
r0.7520000000000058 M
r0.8079999999999984 F
r0.8640000000000043 ?
r0.9199999999999943 8
1+
1,
#130000000
0+
0,
#130500000
b1001101 P
b1110111 R
r0.9176470588235237 8
r0.8611764705882397 ?
r0.8047058823529396 F
r0.7482352941176529 M
1+
1,
#131000000
0+
0,
#131500000
b1001100 P
b1111000 R
r0.7444705882353 M
r0.8014117647058808 F
r0.858352941176475 ?
r0.9152941176470532 8
1+
1,
#132000000
0+
0,
#132500000
b1000100 P
b1111001 R
r0.9129411764705826 8
r0.8555294117647103 ?
r0.798117647058822 F
r0.7407058823529471 M
1+
1,
#133000000
0+
0,
#133500000
b1000101 P
b1111010 R
r0.7369411764705942 M
r0.7948235294117633 F
r0.8527058823529456 ?
r0.910588235294112 8
1+
1,
#134000000
0+
0,
#134500000
b1000111 P
b1111011 R
r0.9082352941176415 8
r0.849882352941181 ?
r0.7915294117647045 F
r0.7331764705882413 M
1+
1,
#135000000
0+
0,
#135500000
b1000110 P
b1111100 R
r0.7294117647058884 M
r0.7882352941176457 F
r0.8470588235294163 ?
r0.9058823529411709 8
1+
1,
#136000000
0+
0,
#136500000
b1000010 P
b1111101 R
r0.9035294117647004 8
r0.8442352941176516 ?
r0.7849411764705869 F
r0.7256470588235355 M
1+
1,
#137000000
0+
0,
#137500000
b1000011 P
b1111110 R
r0.7218823529411826 M
r0.7816470588235281 F
r0.841411764705887 ?
r0.9011764705882298 8
1+
1,
#138000000
0+
0,
#138500000
b1000001 P
b1111111 R
r0.8988235294117592 8
r0.8385882352941223 ?
r0.7783529411764694 F
r0.7181176470588297 M
1+
1,
#139000000
0+
0,
#139500000
b1000000 P
b10000000 R
r0.7143529411764769 M
r0.7750588235294106 F
r0.8357647058823576 ?
r0.8964705882352887 8
1+
1,
#140000000
0+
0,
#140500000
b11000000 P
b10000001 R
r0.8941176470588181 8
r0.832941176470593 ?
r0.7717647058823518 F
r0.710588235294124 M
1+
1,
#141000000
0+
0,
#141500000
b11000001 P
b10000010 R
r0.7068235294117711 M
r0.768470588235293 F
r0.8301176470588283 ?
r0.8917647058823476 8
1+
1,
#142000000
0+
0,
#142500000
b11000011 P
b10000011 R
r0.889411764705877 8
r0.8272941176470636 ?
r0.7651764705882342 F
r0.7030588235294182 M
1+
1,
#143000000
0+
0,
#143500000
b11000010 P
b10000100 R
r0.6992941176470653 M
r0.7618823529411755 F
r0.824470588235299 ?
r0.8870588235294065 8
1+
1,
#144000000
0+
0,
#144500000
b11000110 P
b10000101 R
r0.8847058823529359 8
r0.8216470588235343 ?
r0.7585882352941167 F
r0.6955294117647124 M
1+
1,
#145000000
0+
0,
#145500000
b11000111 P
b10000110 R
r0.6917647058823595 M
r0.7552941176470579 F
r0.8188235294117696 ?
r0.8823529411764653 8
1+
1,
#146000000
0+
0,
#146500000
b11000101 P
b10000111 R
r0.8799999999999948 8
r0.8160000000000049 ?
r0.7519999999999991 F
r0.6880000000000066 M
1+
1,
#147000000
0+
0,
#147500000
b11000100 P
b10001000 R
r0.6842352941176537 M
r0.7487058823529403 F
r0.8131764705882403 ?
r0.8776470588235242 8
1+
1,
#148000000
0+
0,
#148500000
b11001100 P
b10001001 R
r0.8752941176470537 8
r0.8103529411764756 ?
r0.7454117647058816 F
r0.6804705882353008 M
1+
1,
#149000000
0+
0,
#149500000
b11001101 P
b10001010 R
r0.6767058823529479 M
r0.7421176470588228 F
r0.8075294117647109 ?
r0.8729411764705831 8
1+
1,
#150000000
0+
0,
#150500000
b11001111 P
b10001011 R
r0.8705882352941126 8
r0.8047058823529463 ?
r0.738823529411764 F
r0.672941176470595 M
1+
1,
#151000000
0+
0,
#151500000
b11001110 P
b10001100 R
r0.6691764705882421 M
r0.7355294117647052 F
r0.8018823529411816 ?
r0.868235294117642 8
1+
1,
#152000000
0+
0,
#152500000
b11001010 P
b10001101 R
r0.8658823529411714 8
r0.7990588235294169 ?
r0.7322352941176464 F
r0.6654117647058893 M
1+
1,
#153000000
0+
0,
#153500000
b11001011 P
b10001110 R
r0.6616470588235364 M
r0.7289411764705876 F
r0.7962352941176523 ?
r0.8635294117647009 8
1+
1,
#154000000
0+
0,
#154500000
b11001001 P
b10001111 R
r0.8611764705882303 8
r0.7934117647058876 ?
r0.7256470588235289 F
r0.6578823529411835 M
1+
1,
#155000000
0+
0,
#155500000
b11001000 P
b10010000 R
r0.6541176470588306 M
r0.7223529411764701 F
r0.7905882352941229 ?
r0.8588235294117598 8
1+
1,
#156000000
0+
0,
#156500000
b11011000 P
b10010001 R
r0.8564705882352892 8
r0.7877647058823583 ?
r0.7190588235294113 F
r0.6503529411764777 M
1+
1,
#157000000
0+
0,
#157500000
b11011001 P
b10010010 R
r0.6465882352941248 M
r0.7157647058823525 F
r0.7849411764705936 ?
r0.8541176470588187 8
1+
1,
#158000000
0+
0,
#158500000
b11011011 P
b10010011 R
r0.8517647058823481 8
r0.7821176470588289 ?
r0.7124705882352937 F
r0.6428235294117719 M
1+
1,
#159000000
0+
0,
#159500000
b11011010 P
b10010100 R
r0.639058823529419 M
r0.709176470588235 F
r0.7792941176470642 ?
r0.8494117647058775 8
1+
1,
#160000000
0+
0,
#160500000
b11011110 P
b10010101 R
r0.847058823529407 8
r0.7764705882352996 ?
r0.7058823529411762 F
r0.6352941176470661 M
1+
1,
#161000000
0+
0,
#161500000
b11011111 P
b10010110 R
r0.6315294117647132 M
r0.7025882352941174 F
r0.7736470588235349 ?
r0.8447058823529364 8
1+
1,
#162000000
0+
0,
#162500000
b11011101 P
b10010111 R
r0.8423529411764659 8
r0.7708235294117702 ?
r0.6992941176470586 F
r0.6277647058823603 M
1+
1,
#163000000
0+
0,
#163500000
b11011100 P
b10011000 R
r0.6240000000000074 M
r0.6959999999999998 F
r0.7680000000000056 ?
r0.8399999999999953 8
1+
1,
#164000000
0+
0,
#164500000
b11010100 P
b10011001 R
r0.8376470588235247 8
r0.7651764705882409 ?
r0.6927058823529411 F
r0.6202352941176545 M
1+
1,
#165000000
0+
0,
